INDEX VERSION 1.130+C:\fsd\fsd62\module4\1.SpringBoot\SpringEmailDemoWorkspace\.metadata\.plugins\org.eclipse.jdt.core
1793997315.index
3823401377.index
4259073463.index
468345881.index
2553784236.index
895354549.index
2262655054.index
1923927008.index
2815213389.index
3040837599.index
739838560.index
1431714142.index
804214045.index
4168406329.index
820885897.index
3186156836.index
1516454596.index
2507423472.index
542153213.index
3484709000.index
1049126035.index
2056357728.index
3348520720.index
2238446428.index
3395914021.index
4018577806.index
3761965832.index
2514346238.index
2898682907.index
625038643.index
2219058231.index
1004807979.index
674573568.index
519424593.index
3926389830.index
103378668.index
3674748799.index
350626370.index
354074583.index
430812963.index
1102504960.index
709818950.index
1738982640.index
372710895.index
3432392167.index
1533359576.index
2460036197.index
1909502355.index
2205283528.index
4135958314.index
2357877204.index
1946725198.index
403208907.index
2885606711.index
115379530.index
411227453.index
1521778805.index
3644761064.index
4138326577.index
4093131109.index
1961815414.index
138388842.index
2124844985.index
1206601316.index
4135100504.index
4286471599.index
1956904976.index
1316449451.index
2066830214.index
