127.0.0.1 - - [01/Apr/2024:09:43:53 +0530] "GET / HTTP/1.1" 404 752
0:0:0:0:0:0:0:1 - - [01/Apr/2024:09:43:53 +0530] "GET /EmpWebAppWorkspace/LoginPage.html HTTP/1.1" 304 -
0:0:0:0:0:0:0:1 - - [01/Apr/2024:09:45:26 +0530] "GET /EmpWebAppWorkspace/LoginPage?userName=Deekshi&password=Deekshi HTTP/1.1" 200 34
0:0:0:0:0:0:0:1 - - [01/Apr/2024:09:47:42 +0530] "GET /EmpWebAppWorkspace/LoginPage?userName=Deekshitha&password=Deekshitha HTTP/1.1" 200 34
127.0.0.1 - - [01/Apr/2024:09:57:42 +0530] "GET / HTTP/1.1" 404 752
0:0:0:0:0:0:0:1 - - [01/Apr/2024:09:57:42 +0530] "GET /EmpWebAppWorkspace/LoginPage HTTP/1.1" 500 1073
127.0.0.1 - - [01/Apr/2024:09:58:14 +0530] "GET / HTTP/1.1" 404 752
0:0:0:0:0:0:0:1 - - [01/Apr/2024:09:58:15 +0530] "GET /EmpWebAppWorkspace/LoginPage HTTP/1.1" 500 1073
127.0.0.1 - - [01/Apr/2024:09:58:40 +0530] "GET / HTTP/1.1" 404 752
0:0:0:0:0:0:0:1 - - [01/Apr/2024:09:58:41 +0530] "GET /EmpWebAppWorkspace/LoginPage HTTP/1.1" 500 1073
127.0.0.1 - - [01/Apr/2024:10:00:40 +0530] "GET / HTTP/1.1" 404 752
127.0.0.1 - - [01/Apr/2024:10:08:45 +0530] "GET / HTTP/1.1" 404 752
0:0:0:0:0:0:0:1 - - [01/Apr/2024:10:08:55 +0530] "GET /EmpWebAppWorkspace/LoginPage.html HTTP/1.1" 200 328
0:0:0:0:0:0:0:1 - - [01/Apr/2024:10:08:56 +0530] "GET /favicon.ico HTTP/1.1" 404 763
0:0:0:0:0:0:0:1 - - [01/Apr/2024:10:09:24 +0530] "GET /EmpWebAppWorkspace/LoginPage?userName=HR&password=HR HTTP/1.1" 200 28
127.0.0.1 - - [01/Apr/2024:10:09:53 +0530] "GET / HTTP/1.1" 404 752
0:0:0:0:0:0:0:1 - - [01/Apr/2024:10:10:35 +0530] "GET /EmpWebAppWorkspace/LoginPage?userName=HR&password=HR HTTP/1.1" 200 28
0:0:0:0:0:0:0:1 - - [01/Apr/2024:10:11:06 +0530] "GET /EmpWebAppWorkspace/LoginPage.html HTTP/1.1" 200 329
0:0:0:0:0:0:0:1 - - [01/Apr/2024:10:11:13 +0530] "POST /EmpWebAppWorkspace/LoginPage HTTP/1.1" 200 28
127.0.0.1 - - [01/Apr/2024:10:33:27 +0530] "GET / HTTP/1.1" 404 752
0:0:0:0:0:0:0:1 - - [01/Apr/2024:10:33:40 +0530] "GET /EmpWebAppWorkspace/LoginPage.html HTTP/1.1" 304 -
0:0:0:0:0:0:0:1 - - [01/Apr/2024:10:33:53 +0530] "POST /EmpWebAppWorkspace/LoginPage HTTP/1.1" 200 100
127.0.0.1 - - [01/Apr/2024:10:42:55 +0530] "GET / HTTP/1.1" 404 752
0:0:0:0:0:0:0:1 - - [01/Apr/2024:10:42:55 +0530] "GET /EmpWebAppWorkspace/HRHomePage HTTP/1.1" 200 93
0:0:0:0:0:0:0:1 - - [01/Apr/2024:10:43:29 +0530] "GET /EmpWebAppWorkspace/LoginPage.html HTTP/1.1" 304 -
0:0:0:0:0:0:0:1 - - [01/Apr/2024:10:43:37 +0530] "POST /EmpWebAppWorkspace/LoginPage HTTP/1.1" 200 93
127.0.0.1 - - [01/Apr/2024:10:52:27 +0530] "GET / HTTP/1.1" 404 752
0:0:0:0:0:0:0:1 - - [01/Apr/2024:10:52:27 +0530] "GET /EmpWebAppWorkspace/LoginPage HTTP/1.1" 500 1073
0:0:0:0:0:0:0:1 - - [01/Apr/2024:10:52:49 +0530] "GET /EmpWebAppWorkspace/LoginPage?userName=HR&password=hygy HTTP/1.1" 200 355
127.0.0.1 - - [01/Apr/2024:10:56:00 +0530] "GET / HTTP/1.1" 404 752
127.0.0.1 - - [01/Apr/2024:10:57:17 +0530] "GET / HTTP/1.1" 404 752
0:0:0:0:0:0:0:1 - - [01/Apr/2024:10:59:31 +0530] "GET /EmpWebAppWorkspace/LoginPage.html HTTP/1.1" 200 330
0:0:0:0:0:0:0:1 - - [01/Apr/2024:10:59:54 +0530] "GET /EmpWebAppWorkspace/LoginPage.html HTTP/1.1" 304 -
0:0:0:0:0:0:0:1 - - [01/Apr/2024:11:01:19 +0530] "GET /EmpWebAppWorkspace/LoginPage HTTP/1.1" 500 1073
0:0:0:0:0:0:0:1 - - [01/Apr/2024:11:01:27 +0530] "GET /EmpWebAppWorkspace/LoginPage.html HTTP/1.1" 304 -
0:0:0:0:0:0:0:1 - - [01/Apr/2024:11:01:41 +0530] "POST /EmpWebAppWorkspace/LoginPage HTTP/1.1" 200 356
0:0:0:0:0:0:0:1 - - [01/Apr/2024:11:02:03 +0530] "POST /EmpWebAppWorkspace/LoginPage HTTP/1.1" 200 356
0:0:0:0:0:0:0:1 - - [01/Apr/2024:11:02:04 +0530] "POST /EmpWebAppWorkspace/LoginPage HTTP/1.1" 200 356
0:0:0:0:0:0:0:1 - - [01/Apr/2024:11:02:15 +0530] "GET /EmpWebAppWorkspace/LoginPage.html HTTP/1.1" 304 -
0:0:0:0:0:0:0:1 - - [01/Apr/2024:11:02:37 +0530] "POST /EmpWebAppWorkspace/LoginPage HTTP/1.1" 200 356
127.0.0.1 - - [01/Apr/2024:11:02:58 +0530] "GET / HTTP/1.1" 404 752
0:0:0:0:0:0:0:1 - - [01/Apr/2024:11:03:17 +0530] "GET /EmpWebAppWorkspace/LoginPage.html HTTP/1.1" 304 -
0:0:0:0:0:0:0:1 - - [01/Apr/2024:11:03:36 +0530] "POST /EmpWebAppWorkspace/LoginPage HTTP/1.1" 200 93
0:0:0:0:0:0:0:1 - - [01/Apr/2024:11:03:47 +0530] "GET /EmpWebAppWorkspace/LoginPage.html HTTP/1.1" 304 -
0:0:0:0:0:0:0:1 - - [01/Apr/2024:11:03:48 +0530] "GET /EmpWebAppWorkspace/LoginPage.html HTTP/1.1" 304 -
0:0:0:0:0:0:0:1 - - [01/Apr/2024:11:03:48 +0530] "GET /EmpWebAppWorkspace/LoginPage.html HTTP/1.1" 304 -
0:0:0:0:0:0:0:1 - - [01/Apr/2024:11:03:48 +0530] "GET /EmpWebAppWorkspace/LoginPage.html HTTP/1.1" 304 -
0:0:0:0:0:0:0:1 - - [01/Apr/2024:11:03:48 +0530] "GET /EmpWebAppWorkspace/LoginPage.html HTTP/1.1" 304 -
0:0:0:0:0:0:0:1 - - [01/Apr/2024:11:03:49 +0530] "GET /EmpWebAppWorkspace/LoginPage.html HTTP/1.1" 304 -
0:0:0:0:0:0:0:1 - - [01/Apr/2024:11:03:50 +0530] "POST /EmpWebAppWorkspace/LoginPage HTTP/1.1" 200 356
0:0:0:0:0:0:0:1 - - [01/Apr/2024:11:03:52 +0530] "POST /EmpWebAppWorkspace/LoginPage HTTP/1.1" 200 356
127.0.0.1 - - [01/Apr/2024:11:05:09 +0530] "GET / HTTP/1.1" 404 752
0:0:0:0:0:0:0:1 - - [01/Apr/2024:11:05:10 +0530] "GET /EmpWebAppWorkspace/LoginPage.html HTTP/1.1" 304 -
0:0:0:0:0:0:0:1 - - [01/Apr/2024:11:05:18 +0530] "POST /EmpWebAppWorkspace/LoginPage HTTP/1.1" 200 359
127.0.0.1 - - [01/Apr/2024:11:15:10 +0530] "GET / HTTP/1.1" 404 752
0:0:0:0:0:0:0:1 - - [01/Apr/2024:11:15:10 +0530] "GET /EmpWebAppWorkspace/LoginPage.html HTTP/1.1" 200 327
0:0:0:0:0:0:0:1 - - [01/Apr/2024:11:15:19 +0530] "POST /EmpWebAppWorkspace/LoginPage HTTP/1.1" 200 88
127.0.0.1 - - [01/Apr/2024:11:17:17 +0530] "GET / HTTP/1.1" 404 752
0:0:0:0:0:0:0:1 - - [01/Apr/2024:11:17:17 +0530] "GET /EmpWebAppWorkspace/HRHomePage HTTP/1.1" 200 122
0:0:0:0:0:0:0:1 - - [01/Apr/2024:11:17:30 +0530] "GET /EmpWebAppWorkspace/LoginPage.html HTTP/1.1" 304 -
0:0:0:0:0:0:0:1 - - [01/Apr/2024:11:17:37 +0530] "POST /EmpWebAppWorkspace/LoginPage HTTP/1.1" 200 120
127.0.0.1 - - [01/Apr/2024:11:24:29 +0530] "GET / HTTP/1.1" 404 752
0:0:0:0:0:0:0:1 - - [01/Apr/2024:11:24:30 +0530] "GET /EmpWebAppWorkspace/LoginPage.html HTTP/1.1" 304 -
0:0:0:0:0:0:0:1 - - [01/Apr/2024:11:24:37 +0530] "POST /EmpWebAppWorkspace/LoginPage HTTP/1.1" 200 240
